<?xml version="1.0" encoding="utf-8"?>
<!-- Generator: Adobe Illustrator 16.0.0, SVG Export Plug-In . SVG Version: 6.00 Build 0)  -->
<!DOCTYPE svg PUBLIC "-//W3C//DTD SVG 1.1//EN" "http://www.w3.org/Graphics/SVG/1.1/DTD/svg11.dtd">
<svg version="1.1" xmlns="http://www.w3.org/2000/svg" xmlns:xlink="http://www.w3.org/1999/xlink" x="0px" y="0px"
	 width="83.767px" height="110.889px" viewBox="0 0 83.767 110.889" enable-background="new 0 0 83.767 110.889"
	 xml:space="preserve">
<g id="Layer_2">
	<path fill="#FFFFFF" d="M78.697,0H61.868c-2.803,0-5.07,2.271-5.07,5.07l0.012,63.099c0,9.98-2.07,18.808-14.92,18.808
		c-0.004,0-0.005,0-0.009,0c0,0-0.003,0-0.007,0c-12.849,0-14.919-8.827-14.919-18.808L26.969,5.07c0-2.8-2.271-5.07-5.07-5.07H5.07
		C2.268,0,0,2.271,0,5.07v60.73c0,31.708,11.456,45.088,41.874,45.088c0.003,0,0.005,0,0.005,0c0.005,0,0.007,0,0.011,0
		c30.418,0,41.877-13.38,41.877-45.088V5.07C83.767,2.271,81.495,0,78.697,0z"/>
</g>
<g id="Layer_1">
</g>
</svg>
